{
    "key": "group_5c9b78fcc48cc",
    "title": "[ CONTENT ] Gallery, video and text",
    "fields": [
        {
            "key": "field_5c9b88dd9fbfc",
            "label": "[ Content ]",
            "name": "content-inner",
            "type": "flexible_content",
            "instructions": "",
            "required": 0,
            "conditional_logic": 0,
            "wrapper": {
                "width": "",
                "class": "",
                "id": ""
            },
            "layouts": {
                "layout_5c9b88f389fcc": {
                    "key": "layout_5c9b88f389fcc",
                    "name": "g_o_h",
                    "label": "Gallery One Horizontal",
                    "display": "table",
                    "sub_fields": [
                        {
                            "key": "field_5c9c9fbcf8121",
                            "label": "One Repeater",
                            "name": "o_r",
                            "type": "repeater",
                            "instructions": "",
                            "required": 0,
                            "conditional_logic": 0,
                            "wrapper": {
                                "width": "",
                                "class": "",
                                "id": ""
                            },
                            "collapsed": "",
                            "min": 0,
                            "max": 0,
                            "layout": "table",
                            "button_label": "Add Images",
                            "sub_fields": [
                                {
                                    "key": "field_5c9b89329fbfd",
                                    "label": "One image",
                                    "name": "oih",
                                    "type": "image",
                                    "instructions": "",
                                    "required": 0,
                                    "conditional_logic": 0,
                                    "wrapper": {
                                        "width": "",
                                        "class": "",
                                        "id": ""
                                    },
                                    "return_format": "url",
                                    "preview_size": "thumbnail",
                                    "library": "all",
                                    "min_width": "",
                                    "min_height": "",
                                    "min_size": "",
                                    "max_width": "",
                                    "max_height": "",
                                    "max_size": "",
                                    "mime_types": ""
                                },
                                {
                                    "key": "field_5c9c8d4980d61",
                                    "label": "One image description",
                                    "name": "o_i_d",
                                    "type": "textarea",
                                    "instructions": "Write down some description positioned below image.",
                                    "required": 0,
                                    "conditional_logic": 0,
                                    "wrapper": {
                                        "width": "",
                                        "class": "",
                                        "id": ""
                                    },
                                    "default_value": "",
                                    "placeholder": "",
                                    "maxlength": "",
                                    "rows": 3,
                                    "new_lines": ""
                                }
                            ]
                        }
                    ],
                    "min": "",
                    "max": ""
                },
                "layout_5c9b89669fbfe": {
                    "key": "layout_5c9b89669fbfe",
                    "name": "g_t_h",
                    "label": "Gallery Two Horizontal",
                    "display": "table",
                    "sub_fields": [
                        {
                            "key": "field_5c9c9fe7f8122",
                            "label": "Two Repeater",
                            "name": "t_r",
                            "type": "repeater",
                            "instructions": "",
                            "required": 0,
                            "conditional_logic": 0,
                            "wrapper": {
                                "width": "",
                                "class": "",
                                "id": ""
                            },
                            "collapsed": "",
                            "min": 0,
                            "max": 0,
                            "layout": "table",
                            "button_label": "Add Images",
                            "sub_fields": [
                                {
                                    "key": "field_5c9b89669fbff",
                                    "label": "Two images 1",
                                    "name": "tih1",
                                    "type": "image",
                                    "instructions": "",
                                    "required": 0,
                                    "conditional_logic": 0,
                                    "wrapper": {
                                        "width": "",
                                        "class": "",
                                        "id": ""
                                    },
                                    "return_format": "url",
                                    "preview_size": "thumbnail",
                                    "library": "all",
                                    "min_width": "",
                                    "min_height": "",
                                    "min_size": "",
                                    "max_width": "",
                                    "max_height": "",
                                    "max_size": "",
                                    "mime_types": ""
                                },
                                {
                                    "key": "field_5c9c8d7980d62",
                                    "label": "Two images 1 description",
                                    "name": "t_i_d1",
                                    "type": "textarea",
                                    "instructions": "Write down some description positioned below image.",
                                    "required": 0,
                                    "conditional_logic": 0,
                                    "wrapper": {
                                        "width": "",
                                        "class": "",
                                        "id": ""
                                    },
                                    "default_value": "",
                                    "placeholder": "",
                                    "maxlength": "",
                                    "rows": 3,
                                    "new_lines": ""
                                },
                                {
                                    "key": "field_5c9b89d69fc00",
                                    "label": "Two images 2",
                                    "name": "tih2",
                                    "type": "image",
                                    "instructions": "",
                                    "required": 0,
                                    "conditional_logic": 0,
                                    "wrapper": {
                                        "width": "",
                                        "class": "",
                                        "id": ""
                                    },
                                    "return_format": "url",
                                    "preview_size": "thumbnail",
                                    "library": "all",
                                    "min_width": "",
                                    "min_height": "",
                                    "min_size": "",
                                    "max_width": "",
                                    "max_height": "",
                                    "max_size": "",
                                    "mime_types": ""
                                },
                                {
                                    "key": "field_5c9c8dae80d63",
                                    "label": "Two images 2 description",
                                    "name": "t_i_d2",
                                    "type": "textarea",
                                    "instructions": "Write down some description positioned below image.",
                                    "required": 0,
                                    "conditional_logic": 0,
                                    "wrapper": {
                                        "width": "",
                                        "class": "",
                                        "id": ""
                                    },
                                    "default_value": "",
                                    "placeholder": "",
                                    "maxlength": "",
                                    "rows": 3,
                                    "new_lines": ""
                                }
                            ]
                        }
                    ],
                    "min": "",
                    "max": ""
                },
                "layout_5c9b8a289fc01": {
                    "key": "layout_5c9b8a289fc01",
                    "name": "g_th_h",
                    "label": "Gallery Three Horizontal",
                    "display": "table",
                    "sub_fields": [
                        {
                            "key": "field_5c9ca034f8123",
                            "label": "Three Repeater",
                            "name": "th_r",
                            "type": "repeater",
                            "instructions": "",
                            "required": 0,
                            "conditional_logic": 0,
                            "wrapper": {
                                "width": "",
                                "class": "",
                                "id": ""
                            },
                            "collapsed": "",
                            "min": 0,
                            "max": 0,
                            "layout": "table",
                            "button_label": "Add Images",
                            "sub_fields": [
                                {
                                    "key": "field_5c9b8a289fc02",
                                    "label": "Three images 1",
                                    "name": "thih1",
                                    "type": "image",
                                    "instructions": "",
                                    "required": 0,
                                    "conditional_logic": 0,
                                    "wrapper": {
                                        "width": "",
                                        "class": "",
                                        "id": ""
                                    },
                                    "return_format": "url",
                                    "preview_size": "thumbnail",
                                    "library": "all",
                                    "min_width": "",
                                    "min_height": "",
                                    "min_size": "",
                                    "max_width": "",
                                    "max_height": "",
                                    "max_size": "",
                                    "mime_types": ""
                                },
                                {
                                    "key": "field_5c9c8dc780d64",
                                    "label": "Three images 1 description",
                                    "name": "th_i_d1",
                                    "type": "textarea",
                                    "instructions": "Write down some description positioned below image.",
                                    "required": 0,
                                    "conditional_logic": 0,
                                    "wrapper": {
                                        "width": "",
                                        "class": "",
                                        "id": ""
                                    },
                                    "default_value": "",
                                    "placeholder": "",
                                    "maxlength": "",
                                    "rows": 3,
                                    "new_lines": ""
                                },
                                {
                                    "key": "field_5c9b8a289fc03",
                                    "label": "Three images 2",
                                    "name": "thih2",
                                    "type": "image",
                                    "instructions": "",
                                    "required": 0,
                                    "conditional_logic": 0,
                                    "wrapper": {
                                        "width": "",
                                        "class": "",
                                        "id": ""
                                    },
                                    "return_format": "url",
                                    "preview_size": "thumbnail",
                                    "library": "all",
                                    "min_width": "",
                                    "min_height": "",
                                    "min_size": "",
                                    "max_width": "",
                                    "max_height": "",
                                    "max_size": "",
                                    "mime_types": ""
                                },
                                {
                                    "key": "field_5c9c8de680d65",
                                    "label": "Three images 2 description",
                                    "name": "th_i_d2",
                                    "type": "textarea",
                                    "instructions": "Write down some description positioned below image.",
                                    "required": 0,
                                    "conditional_logic": 0,
                                    "wrapper": {
                                        "width": "",
                                        "class": "",
                                        "id": ""
                                    },
                                    "default_value": "",
                                    "placeholder": "",
                                    "maxlength": "",
                                    "rows": 3,
                                    "new_lines": ""
                                },
                                {
                                    "key": "field_5c9b8a4d9fc04",
                                    "label": "Three images 3",
                                    "name": "thih3",
                                    "type": "image",
                                    "instructions": "",
                                    "required": 0,
                                    "conditional_logic": 0,
                                    "wrapper": {
                                        "width": "",
                                        "class": "",
                                        "id": ""
                                    },
                                    "return_format": "url",
                                    "preview_size": "thumbnail",
                                    "library": "all",
                                    "min_width": "",
                                    "min_height": "",
                                    "min_size": "",
                                    "max_width": "",
                                    "max_height": "",
                                    "max_size": "",
                                    "mime_types": ""
                                },
                                {
                                    "key": "field_5c9c8e0280d66",
                                    "label": "Three images 3 description",
                                    "name": "th_i_d3",
                                    "type": "textarea",
                                    "instructions": "Write down some description positioned below image.",
                                    "required": 0,
                                    "conditional_logic": 0,
                                    "wrapper": {
                                        "width": "",
                                        "class": "",
                                        "id": ""
                                    },
                                    "default_value": "",
                                    "placeholder": "",
                                    "maxlength": "",
                                    "rows": 3,
                                    "new_lines": ""
                                }
                            ]
                        }
                    ],
                    "min": "",
                    "max": ""
                },
                "layout_5c9b8c819fc05": {
                    "key": "layout_5c9b8c819fc05",
                    "name": "g_f_h",
                    "label": "Gallery Four Horizontal",
                    "display": "table",
                    "sub_fields": [
                        {
                            "key": "field_5c9ca065f8124",
                            "label": "Four Repeater",
                            "name": "f_r",
                            "type": "repeater",
                            "instructions": "",
                            "required": 0,
                            "conditional_logic": 0,
                            "wrapper": {
                                "width": "",
                                "class": "",
                                "id": ""
                            },
                            "collapsed": "",
                            "min": 0,
                            "max": 0,
                            "layout": "table",
                            "button_label": "Add Images",
                            "sub_fields": [
                                {
                                    "key": "field_5c9b8c819fc06",
                                    "label": "Four images 1",
                                    "name": "fih1",
                                    "type": "image",
                                    "instructions": "",
                                    "required": 0,
                                    "conditional_logic": 0,
                                    "wrapper": {
                                        "width": "",
                                        "class": "",
                                        "id": ""
                                    },
                                    "return_format": "url",
                                    "preview_size": "thumbnail",
                                    "library": "all",
                                    "min_width": "",
                                    "min_height": "",
                                    "min_size": "",
                                    "max_width": "",
                                    "max_height": "",
                                    "max_size": "",
                                    "mime_types": ""
                                },
                                {
                                    "key": "field_5c9c8e1480d67",
                                    "label": "Four images 1 description",
                                    "name": "f_i_d1",
                                    "type": "textarea",
                                    "instructions": "Write down some description positioned below image.",
                                    "required": 0,
                                    "conditional_logic": 0,
                                    "wrapper": {
                                        "width": "",
                                        "class": "",
                                        "id": ""
                                    },
                                    "default_value": "",
                                    "placeholder": "",
                                    "maxlength": "",
                                    "rows": 3,
                                    "new_lines": ""
                                },
                                {
                                    "key": "field_5c9b8c819fc07",
                                    "label": "Four images 2",
                                    "name": "fih2",
                                    "type": "image",
                                    "instructions": "",
                                    "required": 0,
                                    "conditional_logic": 0,
                                    "wrapper": {
                                        "width": "",
                                        "class": "",
                                        "id": ""
                                    },
                                    "return_format": "url",
                                    "preview_size": "thumbnail",
                                    "library": "all",
                                    "min_width": "",
                                    "min_height": "",
                                    "min_size": "",
                                    "max_width": "",
                                    "max_height": "",
                                    "max_size": "",
                                    "mime_types": ""
                                },
                                {
                                    "key": "field_5c9c8e4280d68",
                                    "label": "Four images 2 description",
                                    "name": "f_i_d2",
                                    "type": "textarea",
                                    "instructions": "Write down some description positioned below image.",
                                    "required": 0,
                                    "conditional_logic": 0,
                                    "wrapper": {
                                        "width": "",
                                        "class": "",
                                        "id": ""
                                    },
                                    "default_value": "",
                                    "placeholder": "",
                                    "maxlength": "",
                                    "rows": 3,
                                    "new_lines": ""
                                },
                                {
                                    "key": "field_5c9b8c819fc08",
                                    "label": "Four images 3",
                                    "name": "fih3",
                                    "type": "image",
                                    "instructions": "",
                                    "required": 0,
                                    "conditional_logic": 0,
                                    "wrapper": {
                                        "width": "",
                                        "class": "",
                                        "id": ""
                                    },
                                    "return_format": "url",
                                    "preview_size": "thumbnail",
                                    "library": "all",
                                    "min_width": "",
                                    "min_height": "",
                                    "min_size": "",
                                    "max_width": "",
                                    "max_height": "",
                                    "max_size": "",
                                    "mime_types": ""
                                },
                                {
                                    "key": "field_5c9c8e5180d69",
                                    "label": "Four images 3 description",
                                    "name": "f_i_d3",
                                    "type": "textarea",
                                    "instructions": "Write down some description positioned below image.",
                                    "required": 0,
                                    "conditional_logic": 0,
                                    "wrapper": {
                                        "width": "",
                                        "class": "",
                                        "id": ""
                                    },
                                    "default_value": "",
                                    "placeholder": "",
                                    "maxlength": "",
                                    "rows": 3,
                                    "new_lines": ""
                                },
                                {
                                    "key": "field_5c9b8caa9fc09",
                                    "label": "Four images 4",
                                    "name": "fih4",
                                    "type": "image",
                                    "instructions": "",
                                    "required": 0,
                                    "conditional_logic": 0,
                                    "wrapper": {
                                        "width": "",
                                        "class": "",
                                        "id": ""
                                    },
                                    "return_format": "url",
                                    "preview_size": "thumbnail",
                                    "library": "all",
                                    "min_width": "",
                                    "min_height": "",
                                    "min_size": "",
                                    "max_width": "",
                                    "max_height": "",
                                    "max_size": "",
                                    "mime_types": ""
                                },
                                {
                                    "key": "field_5c9c8e6080d6a",
                                    "label": "Four images 4 description",
                                    "name": "f_i_d4",
                                    "type": "textarea",
                                    "instructions": "Write down some description positioned below image.",
                                    "required": 1,
                                    "conditional_logic": 0,
                                    "wrapper": {
                                        "width": "",
                                        "class": "",
                                        "id": ""
                                    },
                                    "default_value": "",
                                    "placeholder": "",
                                    "maxlength": "",
                                    "rows": 3,
                                    "new_lines": ""
                                }
                            ]
                        }
                    ],
                    "min": "",
                    "max": ""
                },
                "layout_5c9b8e940e80e": {
                    "key": "layout_5c9b8e940e80e",
                    "name": "i_t",
                    "label": "Text",
                    "display": "block",
                    "sub_fields": [
                        {
                            "key": "field_5d38afb35c375",
                            "label": "Title",
                            "name": "title",
                            "type": "text",
                            "instructions": "",
                            "required": 0,
                            "conditional_logic": 0,
                            "wrapper": {
                                "width": "",
                                "class": "",
                                "id": ""
                            },
                            "default_value": "",
                            "placeholder": "",
                            "prepend": "",
                            "append": "",
                            "maxlength": ""
                        },
                        {
                            "key": "field_5d38afb85c376",
                            "label": "Subtitle",
                            "name": "subtitle",
                            "type": "text",
                            "instructions": "",
                            "required": 0,
                            "conditional_logic": 0,
                            "wrapper": {
                                "width": "",
                                "class": "",
                                "id": ""
                            },
                            "default_value": "",
                            "placeholder": "",
                            "prepend": "",
                            "append": "",
                            "maxlength": ""
                        },
                        {
                            "key": "field_5d38aff05c377",
                            "label": "Important Text",
                            "name": "important_text",
                            "type": "wysiwyg",
                            "instructions": "",
                            "required": 0,
                            "conditional_logic": 0,
                            "wrapper": {
                                "width": "",
                                "class": "",
                                "id": ""
                            },
                            "default_value": "",
                            "tabs": "all",
                            "toolbar": "basic",
                            "media_upload": 0,
                            "delay": 0
                        },
                        {
                            "key": "field_5c9b8ec00e812",
                            "label": "Text",
                            "name": "t_w",
                            "type": "wysiwyg",
                            "instructions": "",
                            "required": 0,
                            "conditional_logic": 0,
                            "wrapper": {
                                "width": "",
                                "class": "",
                                "id": ""
                            },
                            "default_value": "",
                            "tabs": "all",
                            "toolbar": "full",
                            "media_upload": 0,
                            "delay": 0
                        },
                        {
                            "key": "field_5c9b8f370e813",
                            "label": "Text on color",
                            "name": "t_g",
                            "type": "select",
                            "instructions": "Choose white or color background of the text field.",
                            "required": 0,
                            "conditional_logic": 0,
                            "wrapper": {
                                "width": "",
                                "class": "",
                                "id": ""
                            },
                            "choices": {
                                "white": "White",
                                "gray": "Color"
                            },
                            "default_value": [],
                            "allow_null": 0,
                            "multiple": 0,
                            "ui": 1,
                            "ajax": 0,
                            "return_format": "value",
                            "placeholder": ""
                        }
                    ],
                    "min": "",
                    "max": ""
                },
                "layout_5c9c8824e52d0": {
                    "key": "layout_5c9c8824e52d0",
                    "name": "btn",
                    "label": "Button",
                    "display": "block",
                    "sub_fields": [
                        {
                            "key": "field_5c9c8824e52d2",
                            "label": "Button Link",
                            "name": "b_l",
                            "type": "link",
                            "instructions": "",
                            "required": 0,
                            "conditional_logic": 0,
                            "wrapper": {
                                "width": "",
                                "class": "",
                                "id": ""
                            },
                            "return_format": "array"
                        }
                    ],
                    "min": "",
                    "max": ""
                },
                "layout_5c9c8a3ce52d3": {
                    "key": "layout_5c9c8a3ce52d3",
                    "name": "vd",
                    "label": "Video",
                    "display": "block",
                    "sub_fields": [
                        {
                            "key": "field_5c9e05a4353cc",
                            "label": "Poster",
                            "name": "poster",
                            "type": "image",
                            "instructions": "Add a video poster image.",
                            "required": 0,
                            "conditional_logic": [
                                [
                                    {
                                        "field": "field_5c9c8a49e52d4",
                                        "operator": "==",
                                        "value": "1"
                                    }
                                ]
                            ],
                            "wrapper": {
                                "width": "",
                                "class": "",
                                "id": ""
                            },
                            "return_format": "url",
                            "preview_size": "thumbnail",
                            "library": "all",
                            "min_width": "",
                            "min_height": "",
                            "min_size": "",
                            "max_width": "",
                            "max_height": "",
                            "max_size": "",
                            "mime_types": ""
                        },
                        {
                            "key": "field_5c9c8a49e52d4",
                            "label": "Video control",
                            "name": "v_c",
                            "type": "true_false",
                            "instructions": "Should play video from internal or external link?",
                            "required": 0,
                            "conditional_logic": 0,
                            "wrapper": {
                                "width": "",
                                "class": "",
                                "id": ""
                            },
                            "message": "",
                            "default_value": 0,
                            "ui": 1,
                            "ui_on_text": "Internal video",
                            "ui_off_text": "Embedded video"
                        },
                        {
                            "key": "field_5c9c8adce52d5",
                            "label": "Video mp4",
                            "name": "v_mp4",
                            "type": "file",
                            "instructions": "Choose video (mp4 format)",
                            "required": 0,
                            "conditional_logic": [
                                [
                                    {
                                        "field": "field_5c9c8a49e52d4",
                                        "operator": "==",
                                        "value": "1"
                                    }
                                ]
                            ],
                            "wrapper": {
                                "width": "",
                                "class": "",
                                "id": ""
                            },
                            "return_format": "url",
                            "library": "all",
                            "min_size": "",
                            "max_size": "",
                            "mime_types": "mp4"
                        },
                        {
                            "key": "field_5c9c8b13e52d6",
                            "label": "Video webm",
                            "name": "v_webm",
                            "type": "file",
                            "instructions": "Choose video (webm format)",
                            "required": 0,
                            "conditional_logic": [
                                [
                                    {
                                        "field": "field_5c9c8a49e52d4",
                                        "operator": "==",
                                        "value": "1"
                                    }
                                ]
                            ],
                            "wrapper": {
                                "width": "",
                                "class": "",
                                "id": ""
                            },
                            "return_format": "url",
                            "library": "all",
                            "min_size": "",
                            "max_size": "",
                            "mime_types": "webm"
                        },
                        {
                            "key": "field_5c9c8b38e52d7",
                            "label": "Video ogv",
                            "name": "v_ogv",
                            "type": "file",
                            "instructions": "Choose video (ogv format)",
                            "required": 0,
                            "conditional_logic": [
                                [
                                    {
                                        "field": "field_5c9c8a49e52d4",
                                        "operator": "==",
                                        "value": "1"
                                    }
                                ]
                            ],
                            "wrapper": {
                                "width": "",
                                "class": "",
                                "id": ""
                            },
                            "return_format": "url",
                            "library": "all",
                            "min_size": "",
                            "max_size": "",
                            "mime_types": "ogv"
                        },
                        {
                            "key": "field_5c9c8b6fe52d8",
                            "label": "External video",
                            "name": "e_v",
                            "type": "oembed",
                            "instructions": "Choose what should this video links to (type correct URL address ex: http:\/\/youtube.com\/hfasdax)",
                            "required": 0,
                            "conditional_logic": [
                                [
                                    {
                                        "field": "field_5c9c8a49e52d4",
                                        "operator": "!=",
                                        "value": "1"
                                    }
                                ]
                            ],
                            "wrapper": {
                                "width": "",
                                "class": "",
                                "id": ""
                            },
                            "width": 820,
                            "height": 380
                        }
                    ],
                    "min": "",
                    "max": ""
                },
                "layout_5cb59e144113f": {
                    "key": "layout_5cb59e144113f",
                    "name": "lr",
                    "label": "Left Right",
                    "display": "block",
                    "sub_fields": [
                        {
                            "key": "field_5cb59f5541146",
                            "label": "Text Image Left Right",
                            "name": "l_r",
                            "type": "repeater",
                            "instructions": "",
                            "required": 0,
                            "conditional_logic": 0,
                            "wrapper": {
                                "width": "",
                                "class": "",
                                "id": ""
                            },
                            "collapsed": "",
                            "min": 0,
                            "max": 0,
                            "layout": "block",
                            "button_label": "Add Image and Text",
                            "sub_fields": [
                                {
                                    "key": "field_5cb59f7d41147",
                                    "label": "Image",
                                    "name": "lr_i",
                                    "type": "image",
                                    "instructions": "",
                                    "required": 1,
                                    "conditional_logic": 0,
                                    "wrapper": {
                                        "width": "",
                                        "class": "",
                                        "id": ""
                                    },
                                    "return_format": "url",
                                    "preview_size": "thumbnail",
                                    "library": "all",
                                    "min_width": "",
                                    "min_height": "",
                                    "min_size": "",
                                    "max_width": "",
                                    "max_height": "",
                                    "max_size": "",
                                    "mime_types": ""
                                },
                                {
                                    "key": "field_5cb59f8e41148",
                                    "label": "Text",
                                    "name": "lr_t",
                                    "type": "wysiwyg",
                                    "instructions": "",
                                    "required": 1,
                                    "conditional_logic": 0,
                                    "wrapper": {
                                        "width": "",
                                        "class": "",
                                        "id": ""
                                    },
                                    "default_value": "",
                                    "tabs": "all",
                                    "toolbar": "full",
                                    "media_upload": 0,
                                    "delay": 1
                                },
                                {
                                    "key": "field_5d38b92b503b8",
                                    "label": "Choose background",
                                    "name": "choose_background",
                                    "type": "select",
                                    "instructions": "Choose the background color for a text section",
                                    "required": 0,
                                    "conditional_logic": 0,
                                    "wrapper": {
                                        "width": "",
                                        "class": "",
                                        "id": ""
                                    },
                                    "choices": {
                                        "style0": "none",
                                        "style1": "blue",
                                        "style2": "green",
                                        "style3": "orange",
                                        "style4": "red",
                                        "style5": "gray"
                                    },
                                    "default_value": [],
                                    "allow_null": 0,
                                    "multiple": 0,
                                    "ui": 1,
                                    "ajax": 0,
                                    "return_format": "value",
                                    "placeholder": ""
                                }
                            ]
                        }
                    ],
                    "min": "",
                    "max": ""
                }
            },
            "button_label": "Add Content",
            "min": "",
            "max": ""
        }
    ],
    "location": [
        [
            {
                "param": "page_template",
                "operator": "==",
                "value": "template-parts\/template-inner.php"
            }
        ]
    ],
    "menu_order": 0,
    "position": "normal",
    "style": "default",
    "label_placement": "top",
    "instruction_placement": "label",
    "hide_on_screen": [
        "the_content",
        "excerpt",
        "discussion"
    ],
    "active": 1,
    "description": "",
    "modified": 1589177608
}